…
joindatomit<- joindat %>% filter(complete.cases(joindat))

library(tidyverse)

joindatomit

## # A tibble: 54 x 12
## ID Accept Acceptance Sex BCPM GPA VR PS WS BS MCAT Apps
## <dbl> <chr> <dbl> <chr> <dbl> <dbl> <dbl> <dbl> <dbl>
<dbl> <dbl> <dbl>
## 1 1 D 0 F 3.59 3.62 11 9 9 9 38 5
## 2 2 A 1 M 3.75 3.84 12 13 8 12 45 3
## 3 3 A 1 F 3.24 3.23 9 10 5 9 33 19
## 4 4 A 1 F 3.74 3.69 12 11 7 10 40 5
## 5 5 A 1 F 3.53 3.38 9 11 4 11 35 11
## 6 6 A 1 M 3.59 3.72 10 9 7 10 36 5
## 7 7 A 1 M 3.85 3.89 11 12 6 11 40 5
## 8 8 D 0 M 3.26 3.34 11 11 8 9 39 7
## 9 9 A 1 F 3.74 3.71 8 10 6 11 35 5
## 10 10 A 1 F 3.86 3.89 9 9 6 10 34 11
## # … with 44 more rows
…
coeftest(fit,vcov=vcovHC(fit))[,1:2]

##                Estimate Std. Error
## (Intercept)  36.0910479  0.7712346
## BCPM_c        0.5088933  5.9577945
## GPA_c         7.4878577  6.9036483
## BCPM_c:GPA_c  6.2337552  9.2931950

(sum((joindatomit$MCAT-mean(joindatomit$MCAT))^2)-sum(fit$residuals^2))/sum((joindatomit$MCAT-mean(joindatomit$MCAT))^2)

## [1] 0.2340453

joindatomit

## # A tibble: 54 x 14
## ID Accept Acceptance Sex BCPM GPA VR PS WS BS MCAT Apps
GPA_c BCPM_c
## <dbl> <chr> <dbl> <chr> <dbl> <dbl> <dbl> <dbl> <dbl>
<dbl> <dbl> <dbl> <dbl> <dbl>
## 1 1 D 0 F 3.59 3.62 11 9 9 9 38 5 0.0528 0.0730
## 2 2 A 1 M 3.75 3.84 12 13 8 12 45 3 0.273 0.233
## 3 3 A 1 F 3.24 3.23 9 10 5 9 33 19 -0.337 -0.277
## 4 4 A 1 F 3.74 3.69 12 11 7 10 40 5 0.123 0.223
## 5 5 A 1 F 3.53 3.38 9 11 4 11 35 11 -0.187 0.0130
## 6 6 A 1 M 3.59 3.72 10 9 7 10 36 5 0.153 0.0730
## 7 7 A 1 M 3.85 3.89 11 12 6 11 40 5 0.323 0.333
## 8 8 D 0 M 3.26 3.34 11 11 8 9 39 7 -0.227 -0.257
## 9 9 A 1 F 3.74 3.71 8 10 6 11 35 5 0.143 0.223
## 10 10 A 1 F 3.86 3.89 9 9 6 10 34 11 0.323 0.343
## # … with 44 more rows
…
##   (Intercept)   BCPM_c    GPA_c BCPM_c:GPA_c
## 1    0.650133 5.525235 6.411643     7.018033

The original and corrected SEs and uncorrected SEs were very close to each other. However, the SE went up for the interaction of BCPM_c:GPA_c when corrected. After bootstrapping, I can see that these values are also very close, and the interaction standard error lowered slightly.

#5. Logistic Regression

joindatomit2<-joindatomit%>%mutate(y=ifelse(Accept=="A",1,0))
joindatomit2

## # A tibble: 54 x 15
## ID Accept Acceptance Sex BCPM GPA VR PS WS BS MCAT Apps
GPA_c BCPM_c
## <dbl> <chr> <dbl> <chr> <dbl> <dbl> <dbl> <dbl> <dbl>
<dbl> <dbl> <dbl> <dbl> <dbl>
## 1 1 D 0 F 3.59 3.62 11 9 9 9 38 5 0.0528 0.0730
## 2 2 A 1 M 3.75 3.84 12 13 8 12 45 3 0.273 0.233
## 3 3 A 1 F 3.24 3.23 9 10 5 9 33 19 -0.337 -0.277
## 4 4 A 1 F 3.74 3.69 12 11 7 10 40 5 0.123 0.223
## 5 5 A 1 F 3.53 3.38 9 11 4 11 35 11 -0.187 0.0130
## 6 6 A 1 M 3.59 3.72 10 9 7 10 36 5 0.153 0.0730
## 7 7 A 1 M 3.85 3.89 11 12 6 11 40 5 0.323 0.333
## 8 8 D 0 M 3.26 3.34 11 11 8 9 39 7 -0.227 -0.257
## 9 9 A 1 F 3.74 3.71 8 10 6 11 35 5 0.143 0.223
## 10 10 A 1 F 3.86 3.89 9 9 6 10 34 11 0.323 0.343
## # … with 44 more rows, and 1 more variable: y <dbl>
…
