Project 1
…
I chose to do a full join because in my case, this joined both the datasets called “midprojectpart1” and “midprojectpart2” by the common variable, ID number, while retaining all of the other variables unique to each data set. This made the data cohesive and very clear to read and understand. My joined dataset was named “joindat” and later renamed “joindatomit” when NAs were removed.

###3.Wrangling

joindatomit<- joindat %>% filter(complete.cases(joindat))
joindat %>% select(GPA, MCAT)

## # A tibble: 55 x 2
##      GPA  MCAT
##    <dbl> <dbl>
##  1  3.62    38
##  2  3.84    45
##  3  3.23    33
##  4  3.69    40
##  5  3.38    35
##  6  3.72    36
##  7  3.89    40
##  8  3.34    39
##  9  3.71    35
## 10  3.89    34
## # … with 45 more rows

joindat %>% arrange(desc(GPA))

## # A tibble: 55 x 12
##       ID Accept Acceptance  BCPM Sex     GPA    VR    PS    WS    BS  MCAT  Apps
##    <dbl> <chr>       <dbl> <dbl> <chr> <dbl> <dbl> <dbl> <dbl> <dbl> <dbl> <dbl>
##  1    11 A               1  4    F      3.97    11     9     8    11    39     6
##  2    47 A               1  3.98 F      3.97    11    13    10    14    48     6
##  3    44 A               1  3.98 F      3.94    13     8     8    10    39    12
##  4    23 A               1  4    M      3.91    10    13     6    12    41    17
##  5     7 A               1  3.85 M      3.89    11    12     6    11    40     5
##  6    10 A               1  3.86 F      3.89     9     9     6    10    34    11
##  7    20 A               1  3.95 M      3.89    13    14     8    13    48     5
##  8    33 A               1  3.89 F      3.89     8     9     8    10    35     7
##  9    24 A               1  3.98 M      3.88     9    10     8    12    39    17
## 10    39 A               1  3.82 F      3.87    10    10     5     9    34    12
## # … with 45 more rows

joindat %>% group_by(Sex, Accept) %>% summarize(mean_Apps=mean(Apps, na.rm=T))

## # A tibble: 4 x 3
## # Groups:   Sex [2]
##   Sex   Accept mean_Apps
##   <chr> <chr>      <dbl>
## 1 F     A           8.56
## 2 F     D           9.1 
## 3 M     A           7.5 
## 4 M     D           8.33

joindat %>% mutate_if(is.numeric, round)

## # A tibble: 55 x 12
##       ID Accept Acceptance  BCPM Sex     GPA    VR    PS    WS    BS  MCAT  Apps
##    <dbl> <chr>       <dbl> <dbl> <chr> <dbl> <dbl> <dbl> <dbl> <dbl> <dbl> <dbl>
##  1     1 D               0     4 F         4    11     9     9     9    38     5
##  2     2 A               1     4 M         4    12    13     8    12    45     3
##  3     3 A               1     3 F         3     9    10     5     9    33    19
##  4     4 A               1     4 F         4    12    11     7    10    40     5
##  5     5 A               1     4 F         3     9    11     4    11    35    11
##  6     6 A               1     4 M         4    10     9     7    10    36     5
##  7     7 A               1     4 M         4    11    12     6    11    40     5
##  8     8 D               0     3 M         3    11    11     8     9    39     7
##  9     9 A               1     4 F         4     8    10     6    11    35     5
## 10    10 A               1     4 F         4     9     9     6    10    34    11
## # … with 45 more rows
…
final<-joindatomit%>%mutate(cluster=as.factor(pam2$clustering))

confmat<-final%>%group_by(ID, Accept, Acceptance, Sex)%>%count(cluster)%>%arrange(desc(n))%>%
pivot_wider(names_from="cluster",values_from="n",values_fill = list('n'=0))

confmat

## # A tibble: 54 x 7
## # Groups:   ID, Accept, Acceptance, Sex [54]
##       ID Accept Acceptance Sex     `1`   `2`   `3`
##    <dbl> <chr>       <dbl> <chr> <int> <int> <int>
##  1     1 D               0 F         1     0     0
##  2     2 A               1 M         1     0     0
##  3     3 A               1 F         0     1     0
##  4     4 A               1 F         1     0     0
##  5     5 A               1 F         0     1     0
##  6     6 A               1 M         0     0     1
##  7     7 A               1 M         1     0     0
##  8     8 D               0 M         1     0     0
##  9     9 A               1 F         0     0     1
## 10    10 A               1 F         0     1     0
## # … with 44 more rows
…
